-- -*- haskell -*-
-- This Alex file was machine-generated by the BNF converter
{
{-# OPTIONS -fno-warn-incomplete-patterns #-}
{-# OPTIONS_GHC -w #-}
module Tenet.Grammar.LexTenet where


import Data.Convertible.Utf8 (convert)
import qualified Data.ByteString.Char8 as BS
import qualified Data.Bits
import Data.Word (Word8)
import Data.Char (ord)
}


$c = [A-Z\192-\221] # [\215]  -- capital isolatin1 letter (215 = \times) FIXME
$s = [a-z\222-\255] # [\247]  -- small   isolatin1 letter (247 = \div  ) FIXME
$l = [$c $s]         -- letter
$d = [0-9]           -- digit
$i = [$l $d _ ']     -- identifier character
$u = [. \n]          -- universal: any character

@rsyms =    -- symbols and non-identifier-like reserved words
   \( | \) | \{ | \} | \. | \; | \, | \: | \- \> | \# | \~ | \+ | \- | \* | \| | \= \= | \! \= | \< | \< \= | \> | \> \= | \+ \+ | \| \| | \- \- | \/ | \/ \/ | \% | \& \& | \. \. \. | \[ | \] | \. \. | \? | \! \! | \# \( | \! "Unspec" | \: \= | \= | \+ \= | \- \= | \* \= | \/ \= | \/ \/ \= | \% \= | \+ \+ \= | \| \| \= | \& \& \= | \- \- \=

:-
";;" [.]* ; -- Toss single line comments

$white+ ;
@rsyms
    { tok (\p s -> PT p (eitherResIdent (TV . share) (convert s))) }
$s ($l | $d | \_)*
    { tok (\p s -> PT p (eitherResIdent (T_ValId . share) (convert s))) }
$c ($l | $d | \_)*
    { tok (\p s -> PT p (eitherResIdent (T_TypId . share) (convert s))) }

$l $i*
    { tok (\p s -> PT p (eitherResIdent (TV . share) (convert s))) }
\" ([$u # [\" \\ \n]] | (\\ (\" | \\ | \' | n | t | r | f)))* \"
    { tok (\p s -> PT p (TL $ share $ unescapeInitTail $ convert s)) }

$d+
    { tok (\p s -> PT p (TI $ share $ convert s))    }


{

tok :: (Posn -> String -> Token) -> (Posn -> String -> Token)
tok f p s = f p s

share :: BS.ByteString -> BS.ByteString
share = id

data Tok =
   TS !BS.ByteString !Int    -- reserved words and symbols
 | TL !BS.ByteString         -- string literals
 | TI !BS.ByteString         -- integer literals
 | TV !BS.ByteString         -- identifiers
 | TD !BS.ByteString         -- double precision float literals
 | TC !BS.ByteString         -- character literals
 | T_ValId !BS.ByteString
 | T_TypId !BS.ByteString

 deriving (Eq,Show,Ord)

data Token =
   PT  Posn Tok
 | Err Posn
  deriving (Eq,Show,Ord)

printPosn :: Posn -> String
printPosn (Pn _ l c) = "line " ++ show l ++ ", column " ++ show c

tokenPos :: [Token] -> String
tokenPos (t:_) = printPosn (tokenPosn t)
tokenPos [] = "end of file"

tokenPosn :: Token -> Posn
tokenPosn (PT p _) = p
tokenPosn (Err p) = p

tokenLineCol :: Token -> (Int, Int)
tokenLineCol = posLineCol . tokenPosn

posLineCol :: Posn -> (Int, Int)
posLineCol (Pn _ l c) = (l,c)

mkPosToken :: Token -> ((Int, Int), String)
mkPosToken t@(PT p _) = (posLineCol p, prToken t)

prToken :: Token -> String
prToken t = case t of
  PT _ (TS s _) -> convert s
  PT _ (TL s)   -> show s
  PT _ (TI s)   -> convert s
  PT _ (TV s)   -> convert s
  PT _ (TD s)   -> convert s
  PT _ (TC s)   -> convert s
  Err _         -> "#error"
  PT _ (T_ValId s) -> convert s
  PT _ (T_TypId s) -> convert s


data BTree = N | B BS.ByteString Tok BTree BTree deriving (Show)

eitherResIdent :: (BS.ByteString -> Tok) -> BS.ByteString -> Tok
eitherResIdent tv s = treeFind resWords
  where
  treeFind N = tv s
  treeFind (B a t left right) | s < a  = treeFind left
                              | s > a  = treeFind right
                              | s == a = t

resWords :: BTree
resWords = b "?" 40 (b "--" 20 (b "(" 10 (b "#(" 5 (b "!Unspec" 3 (b "!=" 2 (b "!!" 1 N N) N) (b "#" 4 N N)) (b "&&" 8 (b "%=" 7 (b "%" 6 N N) N) (b "&&=" 9 N N))) (b "++" 15 (b "*=" 13 (b "*" 12 (b ")" 11 N N) N) (b "+" 14 N N)) (b "," 18 (b "+=" 17 (b "++=" 16 N N) N) (b "-" 19 N N)))) (b "/=" 30 (b ".." 25 (b "->" 23 (b "-=" 22 (b "--=" 21 N N) N) (b "." 24 N N)) (b "//" 28 (b "/" 27 (b "..." 26 N N) N) (b "//=" 29 N N))) (b "<=" 35 (b ";" 33 (b ":=" 32 (b ":" 31 N N) N) (b "<" 34 N N)) (b ">" 38 (b "==" 37 (b "=" 36 N N) N) (b ">=" 39 N N))))) (b "import" 60 (b "def" 50 (b "as" 45 (b "]" 43 (b "[" 42 (b "Func" 41 N N) N) (b "and" 44 N N)) (b "catch" 48 (b "case" 47 (b "break" 46 N N) N) (b "continue" 49 N N))) (b "for" 55 (b "eqv" 53 (b "else" 52 (b "default" 51 N N) N) (b "false" 54 N N)) (b "if" 58 (b "gen" 57 (b "func" 56 N N) N) (b "imp" 59 N N)))) (b "true" 70 (b "or" 65 (b "meta" 63 (b "let" 62 (b "in" 61 N N) N) (b "not" 64 N N)) (b "switch" 68 (b "return" 67 (b "pass" 66 N N) N) (b "tenet" 69 N N))) (b "|" 75 (b "xor" 73 (b "type" 72 (b "try" 71 N N) N) (b "{" 74 N N)) (b "}" 78 (b "||=" 77 (b "||" 76 N N) N) (b "~" 79 N N)))))
   where b s n = let bs = BS.pack s
                  in B bs (TS bs n)

unescapeInitTail :: BS.ByteString -> BS.ByteString
unescapeInitTail = BS.pack . unesc . tail . BS.unpack where
  unesc s = case s of
    '\\':c:cs | elem c ['\"', '\\', '\''] -> c : unesc cs
    '\\':'n':cs  -> '\n' : unesc cs
    '\\':'t':cs  -> '\t' : unesc cs
    '\\':'r':cs  -> '\r' : unesc cs
    '\\':'f':cs  -> '\f' : unesc cs
    '"':[]    -> []
    c:cs      -> c : unesc cs
    _         -> []

-------------------------------------------------------------------
-- Alex wrapper code.
-- A modified "posn" wrapper.
-------------------------------------------------------------------

data Posn = Pn !Int !Int !Int
      deriving (Eq, Show,Ord)

alexStartPos :: Posn
alexStartPos = Pn 0 1 1

alexMove :: Posn -> Char -> Posn
alexMove (Pn a l c) '\t' = Pn (a+1)  l     (((c+7) `div` 8)*8+1)
alexMove (Pn a l c) '\n' = Pn (a+1) (l+1)   1
alexMove (Pn a l c) _    = Pn (a+1)  l     (c+1)

type Byte = Word8

type AlexInput = (Posn,     -- current position,
                  Char,     -- previous char
                  [Byte],   -- pending bytes on the current char
                  BS.ByteString)   -- current input string

tokens :: BS.ByteString -> [Token]
tokens str = go (alexStartPos, '\n', [], str)
    where
      go :: AlexInput -> [Token]
      go inp@(pos, _, _, str) =
               case alexScan inp 0 of
                AlexEOF                   -> []
                AlexError (pos, _, _, _)  -> [Err pos]
                AlexSkip  inp' len        -> go inp'
                AlexToken inp' len act    -> act pos (convert $ BS.take len str) : (go inp')

alexGetByte :: AlexInput -> Maybe (Byte,AlexInput)
alexGetByte (p, c, (b:bs), s) = Just (b, (p, c, bs, s))
alexGetByte (p, _, [], s) =
  case BS.uncons s of
    Nothing  -> Nothing
    Just (c,s) ->
             let p'     = alexMove p c
                 (b:bs) = utf8Encode c
              in p' `seq` Just (b, (p', c, bs, s))

alexInputPrevChar :: AlexInput -> Char
alexInputPrevChar (p, c, bs, s) = c

-- | Encode a Haskell String to a list of Word8 values, in UTF8 format.
utf8Encode :: Char -> [Word8]
utf8Encode = map fromIntegral . go . ord
 where
  go oc
   | oc <= 0x7f       = [oc]

   | oc <= 0x7ff      = [ 0xc0 + (oc `Data.Bits.shiftR` 6)
                        , 0x80 + oc Data.Bits..&. 0x3f
                        ]

   | oc <= 0xffff     = [ 0xe0 + (oc `Data.Bits.shiftR` 12)
                        , 0x80 + ((oc `Data.Bits.shiftR` 6) Data.Bits..&. 0x3f)
                        , 0x80 + oc Data.Bits..&. 0x3f
                        ]
   | otherwise        = [ 0xf0 + (oc `Data.Bits.shiftR` 18)
                        , 0x80 + ((oc `Data.Bits.shiftR` 12) Data.Bits..&. 0x3f)
                        , 0x80 + ((oc `Data.Bits.shiftR` 6) Data.Bits..&. 0x3f)
                        , 0x80 + oc Data.Bits..&. 0x3f
                        ]
}
